module bitbucket.org/emanuelvald/gotwittor

go 1.14

require (
	github.com/dgrijalva/jwt-go v3.2.0+incompatible // indirect
	github.com/gorilla/mux v1.7.4
	github.com/rs/cors v1.7.0
	go.mongodb.org/mongo-driver v1.3.4
	golang.org/x/crypto v0.0.0-20200604202706-70a84ac30bf9
)
